<svg xmlns="http://www.w3.org/2000/svg" width="49" height="48" viewBox="0 0 49 48">
  <g id="Group_11287" data-name="Group 11287" transform="translate(-216 -129)">
    <rect id="Rectangle_2855" data-name="Rectangle 2855" width="49" height="48" rx="8" transform="translate(216 129)" fill="#f1f1f1"/>
    <path id="Union_27" data-name="Union 27" d="M8.438,22.82V18.251L6.9,20.021v2.8H4.219V21.659a1.348,1.348,0,0,1-.35-.22L2.678,20.407V22.82H0V0H2.678V15.347l1.542-1.77V0H6.9V10.5l1.542-1.77V0h2.677V6.02a1.36,1.36,0,0,1,1.226.286l.467.405,4.4-5.049L18.95,3.176l-4.4,5.05.468.406a1.351,1.351,0,0,1,.133,1.906l-4.04,4.639V22.82Zm.751-.751h1.175V16.039L9.19,17.388Zm-4.219,0H6.145V20.884l-.367.421a1.353,1.353,0,0,1-.808.447Zm-4.219,0H1.926V19.755l-.737-.639a1.34,1.34,0,0,1-.438-.752ZM11,6.933,1.623,17.7a.6.6,0,0,0,.059.847l2.68,2.324a.622.622,0,0,0,.85-.06l9.376-10.768a.6.6,0,0,0-.058-.847l-2.68-2.324a.606.606,0,0,0-.85.06ZM.751,17.826a1.336,1.336,0,0,1,.3-.616l.871-1V.75H.751ZM4.97,12.714l1.175-1.349V.75H4.97ZM9.19,7.868l1.175-1.349V.75H9.19Zm4.8-.135,3.9-4.483-.61-.528L13.377,7.2l.305.265ZM12.009,18.741a3.624,3.624,0,1,1,3.624,3.619A3.626,3.626,0,0,1,12.009,18.741Zm.751,0a2.873,2.873,0,1,0,2.873-2.869A2.874,2.874,0,0,0,12.76,18.74Z" transform="translate(231.371 142)" fill="#6441a5"/>
  </g>
</svg>
