<svg xmlns="http://www.w3.org/2000/svg" xmlns:xlink="http://www.w3.org/1999/xlink" width="140" height="80" viewBox="0 0 140 80">
  <defs>
    <filter id="Rectangle_393" x="-6" y="-5" width="61" height="33" filterUnits="userSpaceOnUse">
      <feOffset dy="1" input="SourceAlpha"/>
      <feGaussianBlur stdDeviation="3" result="blur"/>
      <feFlood flood-opacity="0.161"/>
      <feComposite operator="in" in2="blur"/>
      <feComposite in="SourceGraphic"/>
    </filter>
    <clipPath id="clip-feature_">
      <rect width="140" height="80"/>
    </clipPath>
  </defs>
  <g id="feature_" data-name="feature " clip-path="url(#clip-feature_)">
    <rect width="140" height="80" fill="#fff"/>
    <g id="Group_12678" data-name="Group 12678" transform="translate(1485 -2875)">
      <g id="Group_12564" data-name="Group 12564" transform="translate(-1501 2424)">
        <rect id="Rectangle_539" data-name="Rectangle 539" width="140" height="80" transform="translate(16 451)" fill="#c9c9c9"/>
        <g id="Rectangle_540" data-name="Rectangle 540" transform="translate(106 520)" fill="#fff" stroke="#707070" stroke-width="0.25">
          <rect width="50" height="11" stroke="none"/>
          <rect x="0.125" y="0.125" width="49.75" height="10.75" fill="none"/>
        </g>
        <text id="_00:00:00" data-name="00:00:00" transform="translate(112 529)" fill="#0f0f0f" font-size="10" font-family="Roboto-Regular, Roboto"><tspan x="0" y="0">00:00:00</tspan></text>
      </g>
      <g id="Group_12570" data-name="Group 12570" transform="translate(-1535 2773)">
        <g transform="matrix(1, 0, 0, 1, 50, 102)" filter="url(#Rectangle_393)">
          <g id="Rectangle_393-2" data-name="Rectangle 393" transform="translate(3 3)" fill="#4568dc" stroke="#fff" stroke-width="0.5">
            <rect width="43" height="15" stroke="none"/>
            <rect x="0.25" y="0.25" width="42.5" height="14.5" fill="none"/>
          </g>
        </g>
        <text id="Popular" transform="translate(61 116)" fill="#fff" font-size="8" font-family="Roboto-Regular, Roboto"><tspan x="0" y="0">Popular</tspan></text>
      </g>
    </g>
  </g>
</svg>
