<svg xmlns="http://www.w3.org/2000/svg" width="48" height="48" viewBox="0 0 48 48">
  <g id="Group_11288" data-name="Group 11288" transform="translate(325 177) rotate(180)">
    <rect id="Rectangle_2856" data-name="Rectangle 2856" width="48" height="48" rx="8" transform="translate(277 129)" fill="#6441a5"/>
    <path id="Union_2" data-name="Union 2" d="M13.1,25V13.1H25V25ZM6,25a6,6,0,0,1-6-6V13.1H11.9V25ZM13.1,11.9V0H19a6,6,0,0,1,6,6v5.9ZM0,11.9V6A6,6,0,0,1,6,0h5.9V11.9Z" transform="translate(288 140)" fill="#fff"/>
  </g>
</svg>
