<svg xmlns="http://www.w3.org/2000/svg" width="270.5" height="35" viewBox="0 0 270.5 35">
  <g id="Group_1408" data-name="Group 1408" transform="translate(-46 -71)">
    <line id="Line_127" data-name="Line 127" x2="226" transform="translate(67.5 78.5)" fill="none" stroke="#0068a3" stroke-linecap="round" stroke-width="0.6"/>
    <g id="Group_1407" data-name="Group 1407">
      <g id="Ellipse_59" data-name="Ellipse 59" transform="translate(60 71)" fill="#fff" stroke="#0068a3" stroke-width="0.2">
        <circle cx="7" cy="7" r="7" stroke="none"/>
        <circle cx="7" cy="7" r="6.9" fill="none"/>
      </g>
      <g id="Ellipse_62" data-name="Ellipse 62" transform="translate(62 73)" fill="#0068a3" stroke="#0068a3" stroke-width="0.2">
        <circle cx="5" cy="5" r="5" stroke="none"/>
        <circle cx="5" cy="5" r="4.9" fill="none"/>
      </g>
    </g>
    <g id="Ellipse_60" data-name="Ellipse 60" transform="translate(173 71)" fill="#fff" stroke="#0068a3" stroke-width="0.2">
      <circle cx="7" cy="7" r="7" stroke="none"/>
      <circle cx="7" cy="7" r="6.9" fill="none"/>
    </g>
    <g id="Ellipse_61" data-name="Ellipse 61" transform="translate(286 71)" fill="#fff" stroke="#0068a3" stroke-width="0.2">
      <circle cx="7" cy="7" r="7" stroke="none"/>
      <circle cx="7" cy="7" r="6.9" fill="none"/>
    </g>
    <text id="Order" transform="translate(46 102)" fill="#003b80" font-size="12" font-family="Montserrat-Bold, Montserrat" font-weight="700"><tspan x="0" y="0">Order</tspan></text>
    <text id="Address" transform="translate(156.5 102)" fill="#003b80" font-size="12" font-family="ProximaNova-Regular, Proxima Nova"><tspan x="0" y="0">Address</tspan></text>
    <text id="Payment" transform="translate(293.5 102)" fill="#003b80" font-size="12" font-family="ProximaNova-Regular, Proxima Nova"><tspan x="-22.8" y="0">Payment</tspan></text>
  </g>
</svg>
