<svg xmlns="http://www.w3.org/2000/svg" xmlns:xlink="http://www.w3.org/1999/xlink" width="24" height="24" viewBox="0 0 24 24">
  <defs>
    <clipPath id="clip-arrow_1">
      <rect width="24" height="24"/>
    </clipPath>
  </defs>
  <g id="arrow_1" data-name="arrow – 1" clip-path="url(#clip-arrow_1)">
    <g id="ic_chevron_right">
      <rect id="rectangle" width="24" height="24" fill="none"/>
      <path id="path" d="M8.6,7.4,10,6l6,6-6,6L8.6,16.6,13.2,12Z" fill="#0f0f0f" fill-rule="evenodd"/>
    </g>
  </g>
</svg>
