<svg xmlns="http://www.w3.org/2000/svg" width="48" height="48" viewBox="0 0 48 48">
  <g id="Group_11284" data-name="Group 11284" transform="translate(-156 -129)">
    <rect id="Rectangle_2854" data-name="Rectangle 2854" width="48" height="48" rx="8" transform="translate(156 129)" fill="#f1f1f1"/>
    <path id="Path_10083" data-name="Path 10083" d="M77.636,308.84h.677a.338.338,0,1,1,0,.677h-.677v1.691h1.353a.338.338,0,0,1,.338.338v7.442a.338.338,0,0,1-.338.338H57.338a.338.338,0,0,1-.338-.338v-7.442a.338.338,0,0,1,.338-.338H73.576v-1.691H72.9a.338.338,0,1,1,0-.677h.677v-.677a.338.338,0,0,1,.338-.338H77.3a.338.338,0,0,1,.338.338Zm-19.959,3.045v6.766h7.442v-6.766Zm8.119,0v6.766h6.089v-6.766Zm6.766,0v6.766h6.089v-6.766Zm1.691-3.383v2.706h2.706V308.5Zm4.736-3.383H57.338a.338.338,0,0,1-.338-.338v-1.691a.339.339,0,0,1,.116-.255l2.591-2.267v-3.229a.338.338,0,0,1,.338-.338h2.706a.338.338,0,0,1,.338.338v3.229l2.03,1.776v-5.005a.338.338,0,0,1,.338-.338H78.989a.338.338,0,0,1,.338.338v7.442A.338.338,0,0,1,78.989,305.119Zm-18.606-7.442v3.045a.339.339,0,0,1-.116.255l-2.591,2.267v1.2h7.442v-1.2l-2.591-2.267a.339.339,0,0,1-.116-.255v-3.045Zm5.413,0v6.766h6.089v-6.766Zm6.766,0v6.766h6.089v-6.766Zm-2.03,4.06a.338.338,0,0,1-.677,0v-1.353a.338.338,0,0,1,.677,0Zm4.059,0a.338.338,0,0,1-.677,0v-1.353a.338.338,0,0,1,.677,0Zm-15.223,11.5h4.059a.338.338,0,0,1,.338.338v3.383a.338.338,0,0,1-.338.338H59.368a.338.338,0,0,1-.338-.338v-3.383A.338.338,0,0,1,59.368,313.238Zm.338.677v2.706h3.383v-2.706Zm10.825,2.03a.338.338,0,1,1-.677,0v-1.353a.338.338,0,0,1,.677,0Zm-8.119-6.089a.338.338,0,0,1,0-.677h1.353a.338.338,0,0,1,0,.677Zm-3.383,0a.338.338,0,0,1,0-.677h1.353a.338.338,0,0,1,0,.677Zm15.561,6.089a.338.338,0,1,1-.677,0v-1.353a.338.338,0,0,1,.677,0Z" transform="translate(111.836 -155.164)" fill="#3f2b96"/>
  </g>
</svg>
