<svg xmlns="http://www.w3.org/2000/svg" width="25" height="25" viewBox="0 0 25 25">
  <path id="Union_15" data-name="Union 15" d="M5.469,24.888,1.512,23.3A1.922,1.922,0,0,1,0,21.251V3.745A1.927,1.927,0,0,1,1.522,1.688L5.462.111A1.493,1.493,0,0,1,7.5,1.662V23.335A1.515,1.515,0,0,1,6.054,25,1.657,1.657,0,0,1,5.469,24.888Zm.294-24L1.822,2.465c-.8.295-.988.545-.988,1.28V21.251c0,.734.192.985.978,1.276l3.96,1.585a.821.821,0,0,0,.283.055c.366,0,.613-.334.613-.831V1.662c0-.5-.247-.831-.613-.831A.83.83,0,0,0,5.764.889ZM8.75,23.331a.417.417,0,1,1,0-.833h5.834a1.252,1.252,0,0,0,1.25-1.25V15a.417.417,0,1,1,.833,0v6.251a2.086,2.086,0,0,1-2.083,2.084Zm11.372-6.373a.416.416,0,0,1,0-.589l3.456-3.456H9.583a.417.417,0,0,1,0-.833H23.578L20.122,8.623a.417.417,0,0,1,.589-.589L24.877,12.2a.425.425,0,0,1,.091.136.415.415,0,0,1,0,.318.425.425,0,0,1-.091.136l-4.166,4.167a.417.417,0,0,1-.589,0ZM5,13.746v-2.5a.417.417,0,1,1,.833,0v2.5a.417.417,0,1,1-.833,0ZM15.833,10V3.745a1.251,1.251,0,0,0-1.25-1.25H8.7a.417.417,0,0,1,0-.834h5.885a2.086,2.086,0,0,1,2.083,2.084V10a.417.417,0,1,1-.833,0Z" fill="#0068a3"/>
</svg>
