<svg xmlns="http://www.w3.org/2000/svg" xmlns:xlink="http://www.w3.org/1999/xlink" width="25" height="25" viewBox="0 0 25 25">
  <defs>
    <clipPath id="clip-path">
      <rect id="Rectangle_1827" data-name="Rectangle 1827" width="25" height="25" transform="translate(-71 2955)" fill="#fff"/>
    </clipPath>
  </defs>
  <g id="Mask_Group_131" data-name="Mask Group 131" transform="translate(71 -2955)" clip-path="url(#clip-path)">
    <g id="Group_1744" data-name="Group 1744" transform="translate(-85.187 1998.253)">
      <path id="Path_4367" data-name="Path 4367" d="M26.865,6a7.8,7.8,0,0,0-7.573,5.761,8.6,8.6,0,0,0-.261,2.3c.013,2.632,1.427,4.906,3.023,7.114s3.394,4.38,4.352,6.758a.506.506,0,0,0,.934,0c.958-2.378,2.756-4.55,4.352-6.758s3.01-4.482,3.023-7.114a8.6,8.6,0,0,0-.261-2.3A7.8,7.8,0,0,0,26.881,6Zm0,1.013h.016a6.771,6.771,0,0,1,6.592,5.009,7.67,7.67,0,0,1,.229,2.042c-.011,2.267-1.266,4.352-2.833,6.52a43.352,43.352,0,0,0-4,6.014,43.354,43.354,0,0,0-4-6.014c-1.567-2.168-2.822-4.253-2.833-6.52a7.669,7.669,0,0,1,.229-2.042A6.771,6.771,0,0,1,26.865,7.012Zm-.008,3.513a3.244,3.244,0,1,0,3.252,3.252A3.254,3.254,0,0,0,26.857,10.526Zm0,1.013a2.232,2.232,0,1,1-2.239,2.231A2.237,2.237,0,0,1,26.857,11.539Z" transform="translate(0 952.362)" fill="#0068a3"/>
    </g>
  </g>
</svg>
