<svg xmlns="http://www.w3.org/2000/svg" width="49" height="48" viewBox="0 0 49 48">
  <g id="Group_11286" data-name="Group 11286" transform="translate(-95 -129)">
    <rect id="Rectangle_2853" data-name="Rectangle 2853" width="49" height="48" rx="8" transform="translate(95 129)" fill="#f1f1f1"/>
    <path id="headphones" d="M30.28,17.517A12.765,12.765,0,1,0,5.567,22.012a3.061,3.061,0,0,0-.517,3.4l1.5,3.134a3.054,3.054,0,0,0,4.08,1.435l.318-.153a.372.372,0,0,0,.076-.05,1.492,1.492,0,0,0,1.81-2.066L9.4,20.547a1.491,1.491,0,0,0-2.3-.5,10.71,10.71,0,0,1,3.45-10.659,1.1,1.1,0,0,0,.5.126,1.118,1.118,0,0,0,.65-.21,10.049,10.049,0,0,1,11.641,0,1.1,1.1,0,0,0,1.151.086,10.71,10.71,0,0,1,3.447,10.657,1.491,1.491,0,0,0-2.3.5l-3.44,7.166A1.489,1.489,0,0,0,24,29.779a.38.38,0,0,0,.076.05l.318.153a3.058,3.058,0,0,0,4.08-1.435l1.5-3.134a3.061,3.061,0,0,0-.517-3.4,12.645,12.645,0,0,0,.819-4.495ZM8.545,29.4a2.289,2.289,0,0,1-1.313-1.177l-1.5-3.135a2.305,2.305,0,0,1,1.059-3.063l3.5,7.289a2.288,2.288,0,0,1-1.739.086Zm-.819-8.872a.734.734,0,0,1,.319-.073.742.742,0,0,1,.669.42l3.442,7.167a.741.741,0,0,1-1.336.641L7.387,21.528l-.006-.013a.74.74,0,0,1,.347-.988ZM6.041,17.517a11.462,11.462,0,0,0,.53,3.451,1.483,1.483,0,0,0-.014.33l-.073.035a3.075,3.075,0,0,0-.3.168A12.008,12.008,0,0,1,9.595,8.49l.378.393a11.426,11.426,0,0,0-3.932,8.633Zm17.731-8.83a10.8,10.8,0,0,0-12.516,0,.355.355,0,0,1-.464-.039l-.617-.642a12.016,12.016,0,0,1,14.677,0l-.616.641A.355.355,0,0,1,23.772,8.687Zm1.283.2.378-.393A12.008,12.008,0,0,1,28.847,21.5a3.075,3.075,0,0,0-.3-.168l-.073-.035a1.481,1.481,0,0,0-.014-.329,11.458,11.458,0,0,0-3.4-12.085ZM23.218,29.029a.741.741,0,0,1-.347-.988l3.44-7.167a.741.741,0,1,1,1.335.641l-.006.013-3.434,7.153A.74.74,0,0,1,23.218,29.029Zm6.08-3.943-1.5,3.135a2.3,2.3,0,0,1-3.052,1.091l3.5-7.288a2.305,2.305,0,0,1,1.06,3.063Z" transform="translate(101.738 134.734)" fill="#6441a5"/>
  </g>
</svg>
