<svg id="sort" xmlns="http://www.w3.org/2000/svg" width="11.592" height="15.456" viewBox="0 0 11.592 15.456">
  <g id="Double_Arrow_Up_x2F_Down">
    <path id="Path_4236" data-name="Path 4236" d="M151.739,3.473,148.359.14a.5.5,0,0,0-.69,0l-3.381,3.333a.479.479,0,0,0,0,.683.491.491,0,0,0,.69,0l2.548-2.512V9.176a.488.488,0,0,0,.976,0V1.644l2.548,2.512a.491.491,0,0,0,.69,0A.479.479,0,0,0,151.739,3.473Z" transform="translate(-140.29 0)" fill="#0068a3"/>
    <path id="Path_4237" data-name="Path 4237" d="M55.018,149.906l-2.548,2.512v-7.531a.488.488,0,0,0-.976,0v7.531l-2.548-2.512a.491.491,0,0,0-.69,0,.479.479,0,0,0,0,.683l3.381,3.332a.5.5,0,0,0,.69,0l3.381-3.333a.479.479,0,0,0,0-.683A.492.492,0,0,0,55.018,149.906Z" transform="translate(-48.114 -138.605)" fill="#0068a3"/>
  </g>
</svg>
